{
  "jwsPrivateKey": "footprint2022",
  "sendGridKey": "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",
  "fromEmail": "developer@webeteer.com",
  "siteurl": "http://54.205.96.59/",
  "imageUrl": "http://54.205.96.59/",
  "accessKeyId": "AKIASNAXSE5IU44OXQ3E",
  "secretAccessKey": "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",
  "BucketName": "outsourceme",
  "uploadURL": "./images/",
  "version": "v1",
  "re-captcha-key-prod": "6LdywbsaAAAAAMdeBECjEe0duO9hXDI_CNk27v2E",
  "re-captcha-key-dev": "6Lfj8h8aAAAAAGL3E0Bx8u7Vg7pRc4gIkA2ZITzI",
  "admin": "golbin@webeteer.com",
  "admin-please-update-above-before-launch": "hello@footprint.io"
}